[gd_scene load_steps=4 format=2]

[ext_resource path="res://resources/images/bubble_red.png" type="Texture" id=1]
[ext_resource path="res://Ball.gd" type="Script" id=2]

[sub_resource type="CircleShape2D" id=1]
radius = 115.0

[node name="Ball" type="KinematicBody2D"]
collision_layer = 4
collision_mask = 10
script = ExtResource( 2 )

[node name="CollisionShape2D" type="CollisionShape2D" parent="."]
position = Vector2( 128, 128 )
shape = SubResource( 1 )

[node name="TextureRect" type="TextureRect" parent="."]
margin_right = 40.0
margin_bottom = 40.0
texture = ExtResource( 1 )
__meta__ = {
"_edit_use_anchors_": false
}
