; Engine configuration file.
; It's best edited using the editor UI and not directly,
; since the parameters that go here are not all obvious.
;
; Format:
;   [section] ; section goes between []
;   param=value ; assign values to parameters

config_version=4

_global_script_classes=[  ]
_global_script_class_icons={

}

[application]

config/name="Patapang"
run/main_scene="res://MainMenu.tscn"
config/icon="res://icon.png"

[autoload]

Globals="*res://Globals.gd"

[display]

window/size/width=1920
window/size/height=1080
window/stretch/mode="2d"
window/stretch/aspect="keep"

[input_devices]

pointing/emulate_touch_from_mouse=true

[rendering]

environment/default_environment="res://default_env.tres"
